#!/bin/bash

case $1 in 
   sqoop_eo_summary)
        HIVE_URL="jdbc:hive2://10.130.5.160:10000/default"
        HIVE_USER="emrdevuser"
        HIVE_PASS="Emrx@123"
	#EBS_URL="jdbc:oracle:thin:@//10.202.121.240:1525/ebstst1"
	#EBS_USER=BIGDATAINT
	#EBS_PASS=BiHak3bn
	EBS_URL="jdbc:oracle:thin:@//10.202.121.203:1526/ebsdev"
	EBS_USER=apps
	EBS_PASS=appsqA23lUm        
        #MAIL_LIST="projectdlflogs@lumentuminc.onmicrosoft.com"
        MAIL_LIST="lakshmideepak.thandra@lumentum.com"
  ;;
   
   *)
   echo "Invalid parameter passed to the sourcing file. Please pass: sqoop_eo_summary"
   exit 1
   ;;
esac